{
    "status": "ok",
    "message": "ระบบจะแสดงความคุ้มครองของคุณในกรณีหมายเลขโทรศัพท์ที่ลงทะเบียนตรงกับฐานข้อมูลของระบบ",
    "data": [
        {
            "Name": "สมพงษ์",
            "NameEN": "Sompong",
            "Surname": "สุนทรี",
            "SurnamEN": "Soontaree",
            "InsuredType": "Member",
            "CardType": "Group Insurance",
            "InsurerCode": "INS201600016",
            "InsurerName": "บริษัท เอ็ม บี เค ไลฟ์ ประกันชีวิต จำกัด (มหาชน)",
            "InsurerNameEN": "MBK Life Insurance (Public) Co., Ltd.",
            "InsurerDedicateedLine": "026601211",
            "CompanyName": "บริษัท ไทยรับประกันภัยต่อ จำกัด (มหาชน)",
            "CompanyNameEN": "Thaire Insurance (Public) Co., Ltd.",
            "StaffNo": " ",
            "EffFrom": "2018-07-01",
            "EffTo": "2019-01-01",
            "PolNo": "4019661",
            "TelNo": " ",
            "MemberCode": "201948395-934483944-337232KMK-28385",
            "allowEclaim": "True"
        }
    ]
}